…
#folder_name<-"data_CEC_1727186111"
#  start_date<-"2024-08-29 06:00:00"
#  end_date  <-"2024-09-08 06:00:00"




path<-paste0("C:/Users/d.vitali/Desktop/Github/CRIISP-WP6/Data/",folder_name,"/")
```

# BODY temperature

monitored ~ 1400/day (~58/hr)

    ## # A tibble: 31 × 2
    ##    day        non_na_count
    ##    <date>            <int>
    ##  1 2024-10-23         1436
    ##  2 2024-10-24         1440
    ##  3 2024-10-25         1430
    ##  4 2024-10-26         1440
    ##  5 2024-10-27         1440
    ##  6 2024-10-28         1420
    ##  7 2024-10-29         1440
    ##  8 2024-10-30         1430
    ##  9 2024-10-31         1429
    ## 10 2024-11-01         1440
    ## # ℹ 21 more rows
…
    ## # A tibble: 2 × 6
    ##   likely_awake mean_temp sd_temp median_temp   q25   q75
    ##   <lgl>            <dbl>   <dbl>       <dbl> <dbl> <dbl>
    ## 1 FALSE             36.7   0.197        36.6  36.5  36.8
    ## 2 TRUE              37.1   0.278        37.1  37.0  37.2

# STEPS

ad hoc (whenever more than 0 step is recorded)

    ## # A tibble: 31 × 2
    ##    day        non_na_count
    ##    <date>            <int>
    ##  1 2024-10-23          407
    ##  2 2024-10-24          349
    ##  3 2024-10-25          374
    ##  4 2024-10-26          402
    ##  5 2024-10-27          430
    ##  6 2024-10-28          351
    ##  7 2024-10-29          310
    ##  8 2024-10-30          383
    ##  9 2024-10-31          388
    ## 10 2024-11-01          377
    ## # ℹ 21 more rows

# Heart Rate

monitored ~ 140/day (~6/hr)

    ## # A tibble: 31 × 2
    ##    day        non_na_count
    ##    <date>            <int>
    ##  1 2024-10-23          134
    ##  2 2024-10-24          134
    ##  3 2024-10-25          139
    ##  4 2024-10-26          136
    ##  5 2024-10-27          133
    ##  6 2024-10-28          134
    ##  7 2024-10-29          140
    ##  8 2024-10-30          130
    ##  9 2024-10-31          140
    ## 10 2024-11-01          139
    ## # ℹ 21 more rows

# Activity Intensity

monitored ~ 200/day (~8/hr)

    ## # A tibble: 31 × 2
    ##    day        non_na_count
    ##    <date>            <int>
    ##  1 2024-10-23          442
    ##  2 2024-10-24          382
    ##  3 2024-10-25          405
    ##  4 2024-10-26          454
    ##  5 2024-10-27          468
    ##  6 2024-10-28          397
    ##  7 2024-10-29          352
    ##  8 2024-10-30          411
    ##  9 2024-10-31          423
    ## 10 2024-11-01          401
    ## # ℹ 21 more rows

# Sleep states

    ## # A tibble: 31 × 2
    ##    day        non_na_count
    ##    <date>            <int>
    ##  1 2024-10-23           35
    ##  2 2024-10-24           33
    ##  3 2024-10-25           31
    ##  4 2024-10-26           53
    ##  5 2024-10-27           38
    ##  6 2024-10-28           46
    ##  7 2024-10-29           42
    ##  8 2024-10-30           28
    ##  9 2024-10-31           35
    ## 10 2024-11-01           24
    ## # ℹ 21 more rows
…
